<?xml version="1.0" encoding="UTF-8"?>
<CustomTab xmlns="http://soap.sforce.com/2006/04/metadata">
    <frameHeight>800</frameHeight>
    <hasSidebar>false</hasSidebar>
    <label>Surveillance</label>
    <mobileReady>false</mobileReady>
    <motif>Custom9: Lightning</motif>
    <scontrol>ArtesianUK__Surveillance_Connector_Frame</scontrol>
</CustomTab>
