<?xml version="1.0" encoding="UTF-8"?>
<CustomTab xmlns="http://soap.sforce.com/2006/04/metadata">
    <description>This tab will show us all badges and spot rewards received by a user</description>
    <label>Recognition</label>
    <mobileReady>false</mobileReady>
    <motif>Custom59: Can</motif>
    <page>RecognitionOnProfileTab</page>
</CustomTab>
