<?xml version="1.0" encoding="UTF-8"?>
<CustomTab xmlns="http://soap.sforce.com/2006/04/metadata">
    <description>Access to RPM app</description>
    <frameHeight>600</frameHeight>
    <hasSidebar>true</hasSidebar>
    <label>RPM</label>
    <mobileReady>false</mobileReady>
    <motif>Custom29: PDA</motif>
    <url>https://apps.rpm.uk.experian.com:8000/rpm/jsp/common/Login.jsp</url>
    <urlEncodingKey>UTF-8</urlEncodingKey>
</CustomTab>
