<?xml version="1.0" encoding="UTF-8"?>
<CustomTab xmlns="http://soap.sforce.com/2006/04/metadata">
    <description>Seismic Web Application</description>
    <label>Seismic</label>
    <mobileReady>false</mobileReady>
    <motif>Custom55: Books</motif>
    <page>seismic__SeismicWebApplication</page>
</CustomTab>
